…
-   Address the number of rows and the levels of the affected factors.

-   Reorder the levels of country or continent. Use the forcats package to change the order of the factor levels, based on a principled summary of one of the quantitative variables

Let's Go!

Step1: Filter the Gapminder data to remove observations associated with the continent of Oceania

``` r
h_continents <- c("Africa", "Asia", "Europe", "Americas")
h_result <- gapminder %>% filter(continent %in% h_continents)
h_result
```

    ## # A tibble: 1,680 x 6
    ##        country continent  year lifeExp      pop gdpPercap
    ##         <fctr>    <fctr> <int>   <dbl>    <int>     <dbl>
    ##  1 Afghanistan      Asia  1952  28.801  8425333  779.4453
    ##  2 Afghanistan      Asia  1957  30.332  9240934  820.8530
    ##  3 Afghanistan      Asia  1962  31.997 10267083  853.1007
    ##  4 Afghanistan      Asia  1967  34.020 11537966  836.1971
    ##  5 Afghanistan      Asia  1972  36.088 13079460  739.9811
    ##  6 Afghanistan      Asia  1977  38.438 14880372  786.1134
    ##  7 Afghanistan      Asia  1982  39.854 12881816  978.0114
    ##  8 Afghanistan      Asia  1987  40.822 13867957  852.3959
    ##  9 Afghanistan      Asia  1992  41.674 16317921  649.3414
    ## 10 Afghanistan      Asia  1997  41.763 22227415  635.3414
    ## # ... with 1,670 more rows
…
``` r
saveRDS(result, "result.rds")

original_result = readRDS("result.rds")

dput(original_result, "life_exp.txt")

back_result <- dget("life_exp.txt")

back_result
```

    ## # A tibble: 142 x 3
    ##        country continent life_exp
    ##         <fctr>     <chr>    <dbl>
    ##  1 Afghanistan      Asia   43.828
    ##  2     Albania    Europe   76.423
    ##  3     Algeria    Africa   72.301
    ##  4      Angola    Africa   42.731
    ##  5   Argentina  Americas   75.320
    ##  6   Australia   Oceania   81.235
    ##  7     Austria    Europe   79.829
    ##  8     Bahrain      Asia   75.635
    ##  9  Bangladesh      Asia   64.062
    ## 10     Belgium    Europe   79.441
    ## # ... with 132 more rows
…
