…
Hmm, It is quite clear that Africa indeed has the lowest GDP.

BTW, so if we want the data of continents by year?

``` r
gapminder %>% group_by(continent, year) %>% summarise_each(funs(min, max), gdpPercap)
```

    ## `summarise_each()` is deprecated.
    ## Use `summarise_all()`, `summarise_at()` or `summarise_if()` instead.
    ## To map `funs` over a selection of variables, use `summarise_at()`

    ## # A tibble: 60 x 4
    ## # Groups:   continent [?]
    ##    continent  year gdpPercap_min gdpPercap_max
    ##       <fctr> <int>         <dbl>         <dbl>
    ##  1    Africa  1952      298.8462      4725.296
    ##  2    Africa  1957      335.9971      5487.104
    ##  3    Africa  1962      355.2032      6757.031
    ##  4    Africa  1967      412.9775     18772.752
    ##  5    Africa  1972      464.0995     21011.497
    ##  6    Africa  1977      502.3197     21951.212
    ##  7    Africa  1982      462.2114     17364.275
    ##  8    Africa  1987      389.8762     11864.408
    ##  9    Africa  1992      410.8968     13522.158
    ## 10    Africa  1997      312.1884     14722.842
    ## # ... with 50 more rows
…
