…
nest_country <- new_dataset %>% group_by(continent, country) %>% nest()

result <- nest_country %>%  mutate(model = map(data, linear_regression_model), tidy = map(model, tidy)) %>% 
select(continent, country, tidy) %>% unnest(tidy) %>% mutate(term = recode(term, `Interception` = "intercept", `Year Difference` = "slope"))
                                                    

result 
```

    ## # A tibble: 284 x 7
    ##    continent     country           term   estimate   std.error  statistic
    ##       <fctr>       <chr>          <chr>      <dbl>       <dbl>      <dbl>
    ##  1      Asia Afghanistan    (Intercept) 15.5902040 1.663726708   9.370652
    ##  2      Asia Afghanistan I(year - 1900)  0.2753287 0.020450934  13.462890
    ##  3    Europe     Albania    (Intercept) 41.8256009 2.698155750  15.501552
    ##  4    Europe     Albania I(year - 1900)  0.3346832 0.033166387  10.091036
    ##  5    Africa     Algeria    (Intercept) 13.7724289 1.800083981   7.650992
    ##  6    Africa     Algeria I(year - 1900)  0.5692797 0.022127070  25.727749
    ##  7    Africa      Angola    (Intercept) 21.2409811 1.914378218  11.095499
    ##  8    Africa      Angola I(year - 1900)  0.2093399 0.023532003   8.895964
    ##  9  Americas   Argentina    (Intercept) 50.6395995 0.397713488 127.326835
    ## 10  Americas   Argentina I(year - 1900)  0.2317084 0.004888791  47.395847
    ## # ... with 274 more rows, and 1 more variables: p.value <dbl>
…
